…
outputs_df <- 
  inputs %>% 
  mutate(
    y = fasteval(
      mods, 
      b0 = b0, b1 = b1, b2 = b2, b3 = b3, x = x
    )
  )

as_tibble(outputs_df)
#> # A tibble: 164 × 7
#>    mods                      b0    b1     b2     b3     x      y
#>    <fct>                  <dbl> <dbl>  <dbl>  <dbl> <dbl>  <dbl>
#>  1 b0                    -0.296  1.46 -0.132 -0.221  -2   -0.296
#>  2 b0+b1*x               -0.296  1.46 -0.132 -0.221  -2   -3.21 
#>  3 b0+b1*x+b2*x^2        -0.296  1.46 -0.132 -0.221  -2   -3.74 
#>  4 b0+b1*x+b2*x^2+b3*x^3 -0.296  1.46 -0.132 -0.221  -2   -1.97 
#>  5 b0                    -0.296  1.46 -0.132 -0.221  -1.9 -0.296
#>  6 b0+b1*x               -0.296  1.46 -0.132 -0.221  -1.9 -3.07 
#>  7 b0+b1*x+b2*x^2        -0.296  1.46 -0.132 -0.221  -1.9 -3.54 
#>  8 b0+b1*x+b2*x^2+b3*x^3 -0.296  1.46 -0.132 -0.221  -1.9 -2.03 
#>  9 b0                    -0.296  1.46 -0.132 -0.221  -1.8 -0.296
#> 10 b0+b1*x               -0.296  1.46 -0.132 -0.221  -1.8 -2.92 
#> # ℹ 154 more rows
…
